Link Name,Center of Mass X,Center of Mass Y,Center of Mass Z,Center of Mass Roll,Center of Mass Pitch,Center of Mass Yaw,Mass,Moment Ixx,Moment Ixy,Moment Ixz,Moment Iyy,Moment Iyz,Moment Izz,Visual X,Visual Y,Visual Z,Visual Roll,Visual Pitch,Visual Yaw,Mesh Filename,Color Red,Color Green,Color Blue,Color Alpha,Collision X,Collision Y,Collision Z,Collision Roll,Collision Pitch,Collision Yaw,Collision Mesh Filename,Material Name,SW Components,Coordinate System,Axis Name,Joint Name,Joint Type,Joint Origin X,Joint Origin Y,Joint Origin Z,Joint Origin Roll,Joint Origin Pitch,Joint Origin Yaw,Parent,Joint Axis X,Joint Axis Y,Joint Axis Z,Limit Effort,Limit Velocity,Limit Lower,Limit Upper,Calibration rising,Calibration falling,Dynamics Damping,Dynamics Friction,Safety Soft Upper,Safety Soft Lower,Safety K Position,Safety K Velocity
base_link,0.0205629637122902,0.000640419933523872,0.0577165429744442,0,0,0,13.3000279984823,0.318919226664067,-0.0182275116539369,0.000267386428689883,0.690691284216798,0.000281984856433403,0.961006163314647,0,0,0,0,0,0,package://model_200/meshes/base_link.STL,0.792156862745098,0.819607843137255,0.933333333333333,1,0,0,0,0,0,0,package://model_200/meshes/base_link.STL,,Base-1,Base Cordinate,,,,0,0,0,0,0,0,,0,0,0,,,,,,,,,,,,
right_wheel,2.1094E-15,0.00011349,0.006502,0,0,0,0.2998,0.00039661,-2.8513E-36,6.6629E-36,0.00039671,5.8145E-06,0.00072973,0,0,0,0,0,0,package://model_200/meshes/right_wheel.STL,0.8,0.5,0,1,0,0,0,0,0,0,package://model_200/meshes/right_wheel.STL,,Wheel-1,Right Wheel Cordinate,Axis_right_wheel_joint,right_wheel_joint,continuous,-0.023991,-0.22969,-0.14102,1.5882,0,3.1416,base_link,0,0.017452,0.99985,,,,,,,,,,,,
right_front_caster,-0.037748,-9.8058E-05,-0.069776,0,0,0,0.78517,0.00096648,2.477E-08,-0.00010578,0.001426,2.585E-08,0.0011097,0,0,0,0,0,0,package://model_200/meshes/right_front_caster.STL,0.6,0,0,1,0,0,0,0,0,0,package://model_200/meshes/right_front_caster.STL,,Caster Wheel-4,Right Front Caster,Axis_right_front_joint,right_front_joint,continuous,0.31201,-0.20589,-0.037029,0,0,0,base_link,0,0,1,,,,,,,,,,,,
right_back_caster,0.037748,9.8058E-05,-0.069776,0,0,0,0.78517,0.00096648,2.477E-08,0.00010578,0.001426,-2.585E-08,0.0011097,0,0,0,0,0,0,package://model_200/meshes/right_back_caster.STL,0.6,0,0,1,0,0,0,0,0,0,package://model_200/meshes/right_back_caster.STL,,Caster Wheel-3,Right Back Caster,Axis_right_back_joint,right_back_joint,continuous,-0.3014,-0.20554,-0.037029,0,0,0,base_link,0,0,1,,,,,,,,,,,,
left_wheel,1.1657E-15,-0.00011349,-0.006502,0,0,0,0.2998,0.00039661,-4.0629E-20,-2.3276E-18,0.00039671,5.8145E-06,0.00072973,0,0,0,0,0,0,package://model_200/meshes/left_wheel.STL,0.8,0.5,0,1,0,0,0,0,0,0,package://model_200/meshes/left_wheel.STL,,Wheel-2,Left Wheel Cordinate,Axis_left_wheel_joint,left_wheel_joint,continuous,-0.0239909798621814,0.227459999999999,-0.141023000000029,-1.55334303427495,0,0,base_link,0,0.017452406437284,0.999847695156391,,,,,,,,,,,,
left_front_caster,-0.037748,-9.8058E-05,-0.069776,0,0,0,0.78517,0.00096648,2.477E-08,-0.00010578,0.001426,2.585E-08,0.0011097,0,0,0,0,0,0,package://model_200/meshes/left_front_caster.STL,0.6,0,0,1,0,0,0,0,0,0,package://model_200/meshes/left_front_caster.STL,,Caster Wheel-5,Left Front Caster,Axis_left_front_joint,left_front_joint,continuous,0.31201,0.20331,-0.037029,0,0,0,base_link,0,0,1,,,,,,,,,,,,
left_back_caster,0.037748,9.8058E-05,-0.069776,0,0,0,0.78517,0.00096648,2.477E-08,0.00010578,0.001426,-2.585E-08,0.0011097,0,0,0,0,0,0,package://model_200/meshes/left_back_caster.STL,0.6,0,0,1,0,0,0,0,0,0,package://model_200/meshes/left_back_caster.STL,,Caster Wheel-2,Left Back Caster,Axis_left_back_joint,left_back_joint,continuous,-0.3014,0.20446,-0.037029,0,0,0,base_link,0,0,1,,,,,,,,,,,,
front_lidar,-0.010972,-0.010972,0.020858,0,0,0,6.2805,0.010563,0.0001302,-0.00054885,0.010563,-0.00054885,0.0079503,0,0,0,0,0,0,package://model_200/meshes/front_lidar.STL,0.5,0.5,0,1,0,0,0,0,0,0,package://model_200/meshes/front_lidar.STL,,Sick PLS Safety Scanner-1,Front Lidar,,front_lidar_joint,fixed,0.40225,0.23657,-0.014,0,0,0,base_link,0,0,0,,,,,,,,,,,,
back_lidar,0.0094436,0.0094436,0.020858,0,0,0,6.2805,0.010563,0.0001302,0.00054885,0.010563,0.00054885,0.0079503,0,0,0,0,0,0,package://model_200/meshes/back_lidar.STL,0.5,0.5,0,1,0,0,0,0,0,0,package://model_200/meshes/back_lidar.STL,,Sick PLS Safety Scanner-2,Back Lidar,Axis_back_lidar_joint,back_lidar_joint,fixed,-0.383520475985242,-0.236126150732086,-0.0139999999999993,0,0,0,base_link,0,0,0,,,,,,,,,,,,
right_cam,0.0016974,0.0021639,-0.0048669,0,0,0,0.0011998,8.323E-07,-6.9913E-09,1.2435E-07,7.4555E-07,2.2035E-07,1.6674E-07,0,0,0,0,0,0,package://model_200/meshes/right_cam.STL,0.5,0.2,0.2,1,0,0,0,0,0,0,package://model_200/meshes/right_cam.STL,,Part_cam-2,CamR,,right_cam_joint,fixed,0.42089,-0.064074,-0.084608,0,0,0,base_link,0,0,0,,,,,,,,,,,,
left_cam,0.0016974,-0.0021639,-0.0048669,0,0,0,0.0011998,8.323E-07,6.9913E-09,1.2435E-07,7.4555E-07,-2.2035E-07,1.6674E-07,0,0,0,0,0,0,package://model_200/meshes/left_cam.STL,0.5,0.2,0.2,1,0,0,0,0,0,0,package://model_200/meshes/left_cam.STL,,Part_cam-1,CamL,,left_cam_joint,fixed,0.42089,0.062817,-0.084608,0,0,0,base_link,0,0,0,,,,,,,,,,,,
